[
  {
    "description": "angularjs homepage should greet the named user",
    "assertions": [
      {
        "passed": true
      }
    ],
    "duration": 178
  },
  {
    "description": "Enter todo feature Should add a new todo in the todo list",
    "assertions": [
      {
        "passed": true
      }
    ],
    "duration": 232
  },
  {
    "description": "Cross newly created todo from todo list Should reduce 1 todo from todo list",
    "assertions": [
      {
        "passed": true
      }
    ],
    "duration": 90
  },
  {
    "description": "Verify homepage header and title Should display header and title",
    "assertions": [
      {
        "passed": true
      }
    ],
    "duration": 48
  },
  {
    "description": "Calculator addition operation test Get site title",
    "assertions": [
      {
        "passed": true
      }
    ],
    "duration": 1046
  },
  {
    "description": "Calculator addition operation test Addition operation test for 5 and 2",
    "assertions": [
      {
        "passed": true
      }
    ],
    "duration": 2416
  },
  {
    "description": "Verify history of claculation Should have 2 histories",
    "assertions": [
      {
        "passed": true
      }
    ],
    "duration": 4324
  },
  {
    "description": "Calculator subtractior operation test Should select subtractor operator",
    "assertions": [
      {
        "passed": true
      }
    ],
    "duration": 2182
  },
  {
    "description": "angularjs homepage should greet the named user",
    "assertions": [
      {
        "passed": true
      }
    ],
    "duration": 314
  },
  {
    "description": "Enter todo feature Should add a new todo in the todo list",
    "assertions": [
      {
        "passed": true
      }
    ],
    "duration": 369
  },
  {
    "description": "Cross newly created todo from todo list Should reduce 1 todo from todo list",
    "assertions": [
      {
        "passed": true
      }
    ],
    "duration": 262
  },
  {
    "description": "Verify homepage header and title Should display header and title",
    "assertions": [
      {
        "passed": true
      }
    ],
    "duration": 38
  },
  {
    "description": "Calculator addition operation test Get site title",
    "assertions": [
      {
        "passed": true
      }
    ],
    "duration": 1492
  },
  {
    "description": "Calculator addition operation test Addition operation test for 5 and 2",
    "assertions": [
      {
        "passed": true
      }
    ],
    "duration": 3046
  },
  {
    "description": "Verify history of claculation Should have 2 histories",
    "assertions": [
      {
        "passed": true
      }
    ],
    "duration": 5004
  },
  {
    "description": "Calculator subtractior operation test Should select subtractor operator",
    "assertions": [
      {
        "passed": true
      }
    ],
    "duration": 3275
  }
]